{
"pollOptionsList" : [

{"label" : "Hackathon",
"emoji": "<:code:791392793196363798>",
"value": "hackathon"
},
{ "label": "Developer Workshop / Talk",
"emoji": "🎙",
"value": "workshop-talk"
 },
{ "label": "A Skynet Application or Sia-based Product",
"emoji": "<:skynet:791392151728422974>",
"value": "product"
 },
{ "label": "Reddit",
"emoji": "<:reddit:791381517858373682>",
"value": "reddit"
 },
{ "label": "Twitter",
"emoji": "<:twitter:791381517502251009>",
"value": "twitter"
 },
{ "label": "YouTube",
"emoji": "<:youtube:791381517590724639>",
"value": "youtube"
 },
{ "label": "Tiktok",
"emoji": "<:tiktok:791381517888258068>",
"value": "tiktok"
 },
{ "label": "LinkedIn",
"emoji": "<:linkedin:791381517674610780>",
"value": "linkedin"
 },
{ "label": "HackerNews",
"emoji": "<:ycombinator:791381517749190678>",
"value": "hackernews"
 },
{ "label": "Trading/Mining Crypto",
"emoji": "<:stonks:791381517728612394>",
"value": "trading-mining"
 },
{ "label": "Web3/Blockchain Development",
"emoji": "<:ethereum:791394126859075591>",
"value": "web3-blockchain"
 },
{ "label": "News Article or Sia Blog",
"emoji": "<:news:791381517829013534>",
"value": "news-blog"
 },
{ "label": "Storage Research or other Search Engine Results",
"emoji": "<:hdd:791392151480827936>",
"value": "storage-search"
 },
{ "label": "The Musician",
"emoji": "<:musician:791392151664984084>",
"value": "musician"
 },
{ "label": "Other / Can't Remember",
"emoji": "🤔",
"value": "other-unsure"
 }

  ]
}